Data Sources and Processing
…
## Joining with `by = join_by(year, month, day)`
## Joining with `by = join_by(year, month, location_id)`

all_data  |> drop_na(location_name)

## # A tibble: 36,754 × 78
##    elk_id dt                   year month   day  hour   lat  long dist_km
##     <dbl> <dttm>              <dbl> <dbl> <int> <int> <dbl> <dbl>   <dbl>
##  1    572 2006-06-30 19:00:00  2006     7    30    19  44.1 -110.  1.13  
##  2    572 2006-07-01 00:01:00  2006     7     1     0  44.1 -110.  0.117 
##  3    572 2006-07-01 05:00:00  2006     7     1     5  44.1 -110.  0.962 
##  4    572 2006-07-01 10:01:00  2006     7     1    10  44.1 -110.  0.156 
##  5    572 2006-07-01 15:01:00  2006     7     1    15  44.1 -110.  0.369 
##  6    572 2006-07-01 20:00:00  2006     7     1    20  44.1 -110.  0.182 
##  7    572 2006-07-02 01:01:00  2006     7     2     1  44.1 -110.  0.127 
##  8    572 2006-07-02 06:01:00  2006     7     2     6  44.1 -110.  0.800 
##  9    572 2006-07-02 11:03:00  2006     7     2    11  44.1 -110.  0.0780
## 10    572 2006-07-02 16:00:00  2006     7     2    16  44.1 -110.  0.719 
## # ℹ 36,744 more rows
## # ℹ 69 more variables: land_cover <dbl>, tavg <dbl>, tmin <dbl>, tmax <dbl>,
## #   prcp <dbl>, snow <dbl>, snwd <dbl>, location_id <chr>, location_name <chr>,
## #   `monthly_mean_Arsenic mg/l` <dbl>, `monthly_mean_Calcium mg/l` <dbl>,
## #   `monthly_mean_Chloride mg/l` <dbl>,
## #   `monthly_mean_Dissolved oxygen (DO) mg/l` <dbl>,
## #   `monthly_mean_Flow cfs` <dbl>, …
…
